[
  {
    "name": "White",
    "abbr": "W",
    "basic": "Plains"
  },
  {
    "name": "Blue",
    "abbr": "U",
    "basic": "Island"
  },
  {
    "name": "Black",
    "abbr": "B",
    "basic": "Swamp"
  },
  {
    "name": "Red",
    "abbr": "R",
    "basic": "Mountain"
  },
  {
    "name": "Green",
    "abbr": "G",
    "basic": "Forest"
  }
]
